flow_cytometry_analysis
…
names(flowdata) <- fcsfiles %>% 
    # extract file name without .fcs extension and parent folders
    lapply(. %>% 
           stringr::str_match('([^/]+).fcs$') %>% 
           extract2(2))

# join all samples by 'file'
flowdata %<>% bind_rows(.id = 'file') %>% 
  filter_if(is.numeric,all_vars(. >= 0))
print(flowdata)

# A tibble: 570,058 x 14
                    file     FSC.A     SSC.A     APC.A APC.Cy7.A  FITC.A
                   <chr>     <dbl>     <dbl>     <dbl>     <dbl>   <dbl>
 1 Specimen_001_Tube_001 173775.05  58353.58 237.76999     35.40 6567.82
 2 Specimen_001_Tube_001  84840.60  47419.54 168.73999     17.70 2168.06
 3 Specimen_001_Tube_001 132375.28  57618.28 194.10999      4.72 9568.36
 4 Specimen_001_Tube_001 138018.19  66356.74 174.04999     65.49 1555.74
 5 Specimen_001_Tube_001  76408.38  28594.14  64.89999     25.96 1166.16
 6 Specimen_001_Tube_001 262143.00 113630.08 594.71997      5.31 6658.12
 7 Specimen_001_Tube_001 107458.20  39519.58  59.00000     34.81 2912.82
 8 Specimen_001_Tube_001  97739.70  31794.20 146.90999     25.96 4261.30
 9 Specimen_001_Tube_001  15080.34  16763.12  71.98000      3.54  202.96
10 Specimen_001_Tube_001  76043.38  30968.60 227.73999     21.83  971.80
# ... with 570,048 more rows, and 8 more variables: PerCP.A <dbl>,
#   mCFP.A <dbl>, Chromomycin.A3.A <dbl>, PE.A <dbl>, PE.Texas.Red.A <dbl>,
#   PE.Cy5.A <dbl>, PE.Cy7.A <dbl>, Time <dbl>

Read annotations¶

In [3]:

annotations <- read_tsv('../rawdata/flow_cytometry/fig6/WT_arg_codonvariants_122448/sampleannotations.tsv', 
                        col_types = list('plate' = col_integer())) %>% 
  # replace all 'na' ny NA
  mutate_all(funs(ifelse(. == 'na', NA, .))) %>% 
print(annotations)

# A tibble: 54 x 5
                    file codonmutation samplelabel  time replicate
                   <chr>         <chr>       <chr> <int>     <int>
 1 Specimen_001_Tube_001            WT        Rich    12         1
 2 Specimen_001_Tube_002            WT        -Leu    12         1
 3 Specimen_001_Tube_003            WT        -Arg    12         1
 4 Specimen_001_Tube_004           CGG        Rich    12         1
 5 Specimen_001_Tube_005           CGG        -Leu    12         1
 6 Specimen_001_Tube_006           CGG        -Arg    12         1
 7 Specimen_001_Tube_007           CGA        Rich    12         1
 8 Specimen_001_Tube_008           CGA        -Leu    12         1
 9 Specimen_001_Tube_009           CGA        -Arg    12         1
10 Specimen_001_Tube_010           CGT        Rich    12         1
# ... with 44 more rows
…
data <- flowdata  %>% 
    # group by  each file (tube)
    group_by(file) %>% 
    select(FITC.A) %>% 
    # calculate mean
    summarise_all(mean) %>% 
    # ratios
    rename('yfp' = FITC.A) %>% 
    # join annotations
    left_join(annotations, by = 'file')
print(data)

Adding missing grouping variables: `file`

# A tibble: 54 x 6
                    file      yfp codonmutation samplelabel  time replicate
                   <chr>    <dbl>         <chr>       <chr> <int>     <int>
 1 Specimen_001_Tube_001 5652.695            WT        Rich    12         1
 2 Specimen_001_Tube_002 4473.843            WT        -Leu    12         1
 3 Specimen_001_Tube_003 2160.199            WT        -Arg    12         1
 4 Specimen_001_Tube_004 2209.259           CGG        Rich    12         1
 5 Specimen_001_Tube_005 1573.470           CGG        -Leu    12         1
 6 Specimen_001_Tube_006 1238.151           CGG        -Arg    12         1
 7 Specimen_001_Tube_007 1895.023           CGA        Rich    12         1
 8 Specimen_001_Tube_008 1465.629           CGA        -Leu    12         1
 9 Specimen_001_Tube_009 1059.962           CGA        -Arg    12         1
10 Specimen_001_Tube_010 2172.404           CGT        Rich    12         1
# ... with 44 more rows
…
norm.data <- data %>% 
  group_by(codonmutation,time) %>%
  mutate(relative_yfp = yfp / yfp[samplelabel == "Rich"]) %>%
  ungroup() %>% 
  select(-file) %>% 
  filter(samplelabel != "Rich") %>% 
  mutate(samplelabel = stringr::str_replace(samplelabel, "-", "")) %>% 
  mutate(codonmutation = stringr::str_replace(codonmutation, "WT", "CGC")) %>% 
  mutate(codonmutation = stringr::str_replace(codonmutation, "T", "U")) %>%
  mutate_if(is.character, as.factor) %>% 
  mutate(time = as.factor(time)) %>% 
  print

# A tibble: 36 x 6
         yfp codonmutation samplelabel   time replicate relative_yfp
       <dbl>        <fctr>      <fctr> <fctr>     <int>        <dbl>
 1 4473.8432           CGC        Leu     12         1    0.7914531
 2 2160.1987           CGC        Arg     12         1    0.3821538
 3 1573.4696           CGG        Leu     12         1    0.7122161
 4 1238.1506           CGG        Arg     12         1    0.5604371
 5 1465.6290           CGA        Leu     12         1    0.7734094
 6 1059.9622           CGA        Arg     12         1    0.5593399
 7 1733.3637           CGU        Leu     12         1    0.7979010
 8  983.7402           CGU        Arg     12         1    0.4528347
 9 1019.5558           AGA        Leu     12         1    0.8062116
10  565.3547           AGA        Arg     12         1    0.4470531
# ... with 26 more rows
…
names(flowdata) <- fcsfiles %>% 
    # extract file name without .fcs extension and parent folders
    lapply(. %>% 
           stringr::str_match('([^/]+).fcs$') %>% 
           extract2(2))

# join all samples by 'file'
flowdata %<>% bind_rows(.id = 'file') %>% 
  filter_if(is.numeric,all_vars(. >= 0))
print(flowdata)

# A tibble: 583,850 x 14
                    file     FSC.A    SSC.A  APC.A APC.Cy7.A  FITC.A PerCP.A
                   <chr>     <dbl>    <dbl>  <dbl>     <dbl>   <dbl>   <dbl>
 1 Specimen_001_Tube_001 114441.38 41118.00  76.56     12.76 2006.76 2241.12
 2 Specimen_001_Tube_001 110154.81 46641.84  80.04     31.90 6069.84 5756.52
 3 Specimen_001_Tube_001  46831.69 32855.76 110.78     17.98 1467.48 1349.04
 4 Specimen_001_Tube_001 104181.23 45553.20 278.40     30.16 3636.36 3704.40
 5 Specimen_001_Tube_001  81402.30 38120.04 121.80     25.52 8132.88 9076.20
 6 Specimen_001_Tube_001  71689.65 44279.76 116.58     12.76 4495.68 4269.72
 7 Specimen_001_Tube_001 110527.11 42745.92 350.90     81.78   53.76  973.56
 8 Specimen_001_Tube_001 109529.93 40943.28 247.66      0.00  498.12  769.44
 9 Specimen_001_Tube_001  34377.89 23326.80 215.76     22.04 1164.24 1864.80
10 Specimen_001_Tube_001 132105.91 51675.96 345.68     51.04 2488.92 2892.12
# ... with 583,840 more rows, and 7 more variables: mCFP.A <dbl>,
#   Chromomycin.A3.A <dbl>, PE.A <dbl>, PE.Texas.Red.A <dbl>, PE.Cy5.A <dbl>,
#   PE.Cy7.A <dbl>, Time <dbl>

In [50]:

annotations <- read_tsv('../rawdata/flow_cytometry/fig6/GCN2KO_arg_codonvariants_122448/sampleannotations.tsv', 
                        col_types = list('plate' = col_integer())) %>% 
  # replace all 'na' ny NA
  mutate_all(funs(ifelse(. == 'na', NA, .))) %>% 
print(annotations)

# A tibble: 54 x 5
                    file codonmutation samplelabel  time replicate
                   <chr>         <chr>       <chr> <int>     <int>
 1 Specimen_001_Tube_001            WT        Rich    12         1
 2 Specimen_001_Tube_002            WT        -Leu    12         1
 3 Specimen_001_Tube_003            WT        -Arg    12         1
 4 Specimen_001_Tube_004           CGG        Rich    12         1
 5 Specimen_001_Tube_005           CGG        -Leu    12         1
 6 Specimen_001_Tube_006           CGG        -Arg    12         1
 7 Specimen_001_Tube_007           CGA        Rich    12         1
 8 Specimen_001_Tube_008           CGA        -Leu    12         1
 9 Specimen_001_Tube_009           CGA        -Arg    12         1
10 Specimen_001_Tube_010           CGT        Rich    12         1
# ... with 44 more rows
…
data <- flowdata  %>% 
    # group by  each file (tube)
    group_by(file) %>% 
    select(FITC.A) %>% 
    # calculate mean
    summarise_all(mean) %>% 
    # ratios
    rename('yfp' = FITC.A) %>% 
    # join annotations
    left_join(annotations, by = 'file')
print(data)

Adding missing grouping variables: `file`

# A tibble: 54 x 6
                    file      yfp codonmutation samplelabel  time replicate
                   <chr>    <dbl>         <chr>       <chr> <int>     <int>
 1 Specimen_001_Tube_001 3505.561            WT        Rich    12         1
 2 Specimen_001_Tube_002 3956.154            WT        -Leu    12         1
 3 Specimen_001_Tube_003 2648.259            WT        -Arg    12         1
 4 Specimen_001_Tube_004 2176.462           CGG        Rich    12         1
 5 Specimen_001_Tube_005 2602.308           CGG        -Leu    12         1
 6 Specimen_001_Tube_006 2784.508           CGG        -Arg    12         1
 7 Specimen_001_Tube_007 2082.972           CGA        Rich    12         1
 8 Specimen_001_Tube_008 2654.232           CGA        -Leu    12         1
 9 Specimen_001_Tube_009 2060.622           CGA        -Arg    12         1
10 Specimen_001_Tube_010 2499.568           CGT        Rich    12         1
# ... with 44 more rows
…
norm.data <- data %>% 
  group_by(codonmutation,time) %>%
  mutate(relative_yfp = yfp / yfp[samplelabel == "Rich"]) %>%
  ungroup() %>% 
  select(-file) %>% 
  filter(samplelabel != "Rich") %>% 
  mutate(samplelabel = stringr::str_replace(samplelabel, "-", "")) %>% 
  mutate(codonmutation = stringr::str_replace(codonmutation, "WT", "CGC")) %>% 
  mutate(codonmutation = stringr::str_replace(codonmutation, "T", "U")) %>%
  mutate_if(is.character, as.factor) %>% 
  mutate(time = as.factor(time)) %>% 
  print

# A tibble: 36 x 6
        yfp codonmutation samplelabel   time replicate relative_yfp
      <dbl>        <fctr>      <fctr> <fctr>     <int>        <dbl>
 1 3956.154           CGC        Leu     12         1    1.1285368
 2 2648.259           CGC        Arg     12         1    0.7554452
 3 2602.308           CGG        Leu     12         1    1.1956595
 4 2784.508           CGG        Arg     12         1    1.2793733
 5 2654.232           CGA        Leu     12         1    1.2742522
 6 2060.622           CGA        Arg     12         1    0.9892701
 7 2738.958           CGU        Leu     12         1    1.0957729
 8 2088.801           CGU        Arg     12         1    0.8356647
 9 1735.815           AGA        Leu     12         1    1.0759306
10 1369.843           AGA        Arg     12         1    0.8490860
# ... with 26 more rows
…
names(flowdata) <- fcsfiles %>% 
    # extract file name without .fcs extension and parent folders
    lapply(. %>% 
           stringr::str_match('([^/]+).fcs$') %>% 
           extract2(2))

# join all samples by 'file'
flowdata %<>% bind_rows(.id = 'file') %>% 
  filter_if(is.numeric,all_vars(. >= 0))
print(flowdata)

# A tibble: 622,440 x 14
                    file     FSC.A    SSC.A  APC.A APC.Cy7.A   FITC.A
                   <chr>     <dbl>    <dbl>  <dbl>     <dbl>    <dbl>
 1 Specimen_001_Tube_001  82331.28 34729.80 257.64      2.28  5151.72
 2 Specimen_001_Tube_001  95910.48 38316.60  35.34      9.12  6154.68
 3 Specimen_001_Tube_001  63893.52 80225.88 363.66     13.68  5374.32
 4 Specimen_001_Tube_001  78500.16 22809.36   7.98     60.99   383.04
 5 Specimen_001_Tube_001  50770.08 46755.24 173.85      4.56  7814.52
 6 Specimen_001_Tube_001 172866.25 88365.48 258.21     26.79  4202.52
 7 Specimen_001_Tube_001  97738.56 46868.64 346.56     41.04   105.84
 8 Specimen_001_Tube_001  34529.04 31668.00 105.45      6.27  1058.40
 9 Specimen_001_Tube_001  34465.68 47907.72 155.61      9.12 11590.32
10 Specimen_001_Tube_001  85834.09 30771.72 234.84     30.78  2695.56
# ... with 622,430 more rows, and 8 more variables: PerCP.A <dbl>,
#   mCFP.A <dbl>, Chromomycin.A3.A <dbl>, PE.A <dbl>, PE.Texas.Red.A <dbl>,
#   PE.Cy5.A <dbl>, PE.Cy7.A <dbl>, Time <dbl>

In [55]:

annotations <- read_tsv('../rawdata/flow_cytometry/fig6/GCN2KO_leu_codonvariants_122448/sampleannotations.tsv', 
                        col_types = list('plate' = col_integer())) %>% 
  # replace all 'na' ny NA
  mutate_all(funs(ifelse(. == 'na', NA, .))) %>% 
print(annotations)

# A tibble: 54 x 5
                    file codonmutation samplelabel  time replicate
                   <chr>         <chr>       <chr> <int>     <int>
 1 Specimen_001_Tube_001            WT        Rich    12         1
 2 Specimen_001_Tube_002            WT        -Leu    12         1
 3 Specimen_001_Tube_003            WT        -Arg    12         1
 4 Specimen_001_Tube_004           CTA        Rich    12         1
 5 Specimen_001_Tube_005           CTA        -Leu    12         1
 6 Specimen_001_Tube_006           CTA        -Arg    12         1
 7 Specimen_001_Tube_007           CTC        Rich    12         1
 8 Specimen_001_Tube_008           CTC        -Leu    12         1
 9 Specimen_001_Tube_009           CTC        -Arg    12         1
10 Specimen_001_Tube_010           CTT        Rich    12         1
# ... with 44 more rows
…
names(flowdata) <- fcsfiles %>% 
    # extract file name without .fcs extension and parent folders
    lapply(. %>% 
           stringr::str_match('([^/]+).fcs$') %>% 
           extract2(2))

# join all samples by 'file'
flowdata %<>% bind_rows(.id = 'file') %>% 
  filter_if(is.numeric,all_vars(. >= 0))
print(flowdata)

# A tibble: 148,301 x 15
                        file     FSC.A     SSC.A FITC.A    PE.A PE.Texas.Red.A
                       <chr>     <dbl>     <dbl>  <dbl>   <dbl>          <dbl>
 1 Specimen_001_Tube_007_007 105464.24  63375.78 285.51 6974.07        7778.52
 2 Specimen_001_Tube_007_007  66364.94  52640.79  13.02  795.15         586.83
 3 Specimen_001_Tube_007_007 151867.81  62570.40 261.33 6716.46        6247.74
 4 Specimen_001_Tube_007_007 113602.29  32791.80   4.65  797.01        1198.77
 5 Specimen_001_Tube_007_007 243556.81  98042.46  12.09 2209.68        2554.71
 6 Specimen_001_Tube_007_007 262143.00 133930.23 145.08 8316.99       13230.18
 7 Specimen_001_Tube_007_007  69442.50  26756.10  32.55  614.73         620.31
 8 Specimen_001_Tube_007_007 111710.07  42533.55  78.12 2280.36        2927.64
 9 Specimen_001_Tube_007_007 164679.06  45143.13 186.00 3378.69        4189.65
10 Specimen_001_Tube_007_007 182364.23  79325.28 125.55 2703.51        3496.80
# ... with 148,291 more rows, and 9 more variables: PerCP.Cy5.5.A <dbl>,
#   PE.Cy7.A <dbl>, Pacific.Blue.A <dbl>, AmCyan.A <dbl>, APC.A <dbl>,
#   APC.Cy7.A <dbl>, DsRed.A <dbl>, mCherry.A <dbl>, Time <dbl>

In [135]:

annotations <- read_tsv('../rawdata/flow_cytometry/fig6/GCN2KO_WT_8xttg8xcta/sampleannotations.tsv', 
                        col_types = list('plate' = col_integer())) %>% 
  # replace all 'na' ny NA
  mutate_all(funs(ifelse(. == 'na', NA, .))) %>% 
  mutate(genotype = stringr::str_extract(codonmutation, "^\\w+"))  %>% 
  mutate(reporter = stringr::str_extract(codonmutation, "\\w+$"))  %>% 
  mutate(reporter = stringr::str_replace(reporter, "TTG", "UUG")) %>%
  mutate(reporter = stringr::str_replace(reporter, "CTA", "CUA")) %>%
  mutate(samplelabel = stringr::str_replace(samplelabel, "-", ""))
print(annotations)

# A tibble: 36 x 7
                        file codonmutation samplelabel  time replicate genotype
                       <chr>         <chr>       <chr> <int>     <int>    <chr>
 1 Specimen_001_Tube_007_007       WT-TTG8        Rich    12         1       WT
 2 Specimen_001_Tube_008_008       WT-TTG8        Leu    12         1       WT
 3 Specimen_001_Tube_009_009       WT-TTG8        Arg    12         1       WT
 4 Specimen_001_Tube_010_010   GCN2KO-TTG8        Rich    12         1   GCN2KO
 5 Specimen_001_Tube_011_011   GCN2KO-TTG8        Leu    12         1   GCN2KO
 6 Specimen_001_Tube_012_012   GCN2KO-TTG8        Arg    12         1   GCN2KO
 7 Specimen_001_Tube_019_019       WT-CTA8        Rich    12         1       WT
 8 Specimen_001_Tube_020_020       WT-CTA8        Leu    12         1       WT
 9 Specimen_001_Tube_021_021       WT-CTA8        Arg    12         1       WT
10 Specimen_001_Tube_022_022   GCN2KO-CTA8        Rich    12         1   GCN2KO
# ... with 26 more rows, and 1 more variables: reporter <chr>
…
Adding missing grouping variables: `file`

# A tibble: 36 x 8
                        file       yfp codonmutation samplelabel  time
                       <chr>     <dbl>         <chr>       <chr> <int>
 1 Specimen_001_Tube_007_007  63.22729       WT-TTG8        Rich    12
 2 Specimen_001_Tube_008_008  46.29158       WT-TTG8        Leu    12
 3 Specimen_001_Tube_009_009  50.40621       WT-TTG8        Arg    12
 4 Specimen_001_Tube_010_010  56.60506   GCN2KO-TTG8        Rich    12
 5 Specimen_001_Tube_011_011 133.02919   GCN2KO-TTG8        Leu    12
 6 Specimen_001_Tube_012_012  93.41942   GCN2KO-TTG8        Arg    12
 7 Specimen_001_Tube_019_019  53.20926       WT-CTA8        Rich    12
 8 Specimen_001_Tube_020_020  44.85044       WT-CTA8        Leu    12
 9 Specimen_001_Tube_021_021  46.53642       WT-CTA8        Arg    12
10 Specimen_001_Tube_022_022  55.68308   GCN2KO-CTA8        Rich    12
# ... with 26 more rows, and 3 more variables: replicate <int>, genotype <chr>,
#   reporter <chr>
…
names(flowdata) <- fcsfiles %>% 
    # extract file name without .fcs extension and parent folders
    lapply(. %>% 
           stringr::str_match('([^/]+).fcs$') %>% 
           extract2(2))

# join all samples by 'file'
flowdata %<>% bind_rows(.id = 'file') %>% 
  filter_if(is.numeric,all_vars(. >= 0)) %>% 
  print

# A tibble: 226,516 x 15
                        file     FSC.A     SSC.A FITC.A    PE.A PE.Texas.Red.A
                       <chr>     <dbl>     <dbl>  <dbl>   <dbl>          <dbl>
 1 Specimen_001_Tube_001_001 159062.02 123989.94  95.58 2260.71        3065.85
 2 Specimen_001_Tube_001_001  83181.80  78432.30  46.98 1182.60        1296.81
 3 Specimen_001_Tube_001_001  77504.94  53596.08 113.40 2088.99        2073.60
 4 Specimen_001_Tube_001_001  75885.74  64386.09  38.07  708.75         788.13
 5 Specimen_001_Tube_001_001  93542.38  60006.42  63.18 1918.89        3338.01
 6 Specimen_001_Tube_001_001 155994.75 136471.23  42.93 1709.10        2545.83
 7 Specimen_001_Tube_001_001 183238.25 110795.85  17.82 1722.06        2535.30
 8 Specimen_001_Tube_001_001  98263.82  69031.44 110.16 1227.96        1330.83
 9 Specimen_001_Tube_001_001  64763.40  45023.04  68.04 1121.85        1280.61
10 Specimen_001_Tube_001_001 138543.27 148698.98 110.16 3338.01        4247.64
# ... with 226,506 more rows, and 9 more variables: PerCP.Cy5.5.A <dbl>,
#   PE.Cy7.A <dbl>, Pacific.Blue.A <dbl>, AmCyan.A <dbl>, APC.A <dbl>,
#   APC.Cy7.A <dbl>, DsRed.A <dbl>, mCherry.A <dbl>, Time <dbl>
…
