gene_fold_change_plots
…
In [246]:

genome <- BSgenome.Hsapiens.UCSC.hg38
cdsfile <- '../sequence_annotation_files/gencode.v24.canonical_ccds_transcripts.20170315.gff3'

cds <- import.gff3(cdsfile) %>% 
  as_tibble %>% 
  filter(type == 'CDS') %>% 
  group_by(transcript_id) %>% 
  slice(1) %>% 
  select(transcript_id, gene_name, protein_id) %>% 
  print

# A tibble: 18,660 x 3
# Groups:   transcript_id [18,660]
        transcript_id gene_name        protein_id
                <chr>     <chr>             <chr>
 1  ENST00000000233.9      ARF5 ENSP00000000233.5
 2  ENST00000000412.7      M6PR ENSP00000000412.3
 3 ENST00000000442.10     ESRRA ENSP00000000442.6
 4  ENST00000001008.5     FKBP4 ENSP00000001008.4
 5  ENST00000001146.6   CYP26B1 ENSP00000001146.2
 6  ENST00000002125.8   NDUFAF7 ENSP00000002125.4
 7 ENST00000002165.10     FUCA2 ENSP00000002165.5
 8 ENST00000002501.10    DBNDD1 ENSP00000002501.6
 9  ENST00000002596.5    HS3ST1 ENSP00000002596.5
10  ENST00000002829.7    SEMA3F ENSP00000002829.3
# ... with 18,650 more rows
get all CDS for humans¶

In [247]:

human_annotations <- '../sequence_annotation_files/gencode.v24.annotation.gff3'

human_cds <- import.gff3(human_annotations) %>% 
  as_tibble %>% 
  filter(type == 'CDS') %>%
  select(transcript_id, gene_name, protein_id) %>% 
  group_by(transcript_id) %>%  
  slice(1) %>% 
  print

# A tibble: 93,855 x 3
# Groups:   transcript_id [93,855]
        transcript_id gene_name        protein_id
                <chr>     <chr>             <chr>
 1  ENST00000000233.9      ARF5 ENSP00000000233.5
 2  ENST00000000412.7      M6PR ENSP00000000412.3
 3 ENST00000000442.10     ESRRA ENSP00000000442.6
 4  ENST00000001008.5     FKBP4 ENSP00000001008.4
 5  ENST00000001146.6   CYP26B1 ENSP00000001146.2
 6  ENST00000002125.8   NDUFAF7 ENSP00000002125.4
 7 ENST00000002165.10     FUCA2 ENSP00000002165.5
 8 ENST00000002501.10    DBNDD1 ENSP00000002501.6
 9  ENST00000002596.5    HS3ST1 ENSP00000002596.5
10  ENST00000002829.7    SEMA3F ENSP00000002829.3
# ... with 93,845 more rows
get all CDS for mouse¶

In [248]:

mouse_annotations <- '../sequence_annotation_files/gencode.vM9.annotation.gff3.gz'

mouse_cds <- import.gff3(mouse_annotations) %>% 
  as_tibble %>% 
  filter(type == 'CDS') %>%
  select(transcript_id, gene_name, protein_id) %>% 
  group_by(transcript_id) %>%  
  slice(1) %>% 
  print

# A tibble: 57,324 x 3
# Groups:   transcript_id [57,324]
           transcript_id gene_name           protein_id
                   <chr>     <chr>                <chr>
 1  ENSMUST00000000001.4     Gnai3 ENSMUSP00000000001.4
 2 ENSMUST00000000003.13      Pbsn ENSMUSP00000000003.7
 3  ENSMUST00000000010.8     Hoxb9 ENSMUSP00000000010.8
 4 ENSMUST00000000028.13     Cdc45 ENSMUSP00000000028.7
 5 ENSMUST00000000033.11      Igf2 ENSMUSP00000000033.5
 6  ENSMUST00000000049.5      Apoh ENSMUSP00000000049.5
 7  ENSMUST00000000058.6      Cav2 ENSMUSP00000000058.6
 8  ENSMUST00000000080.6      Klf6 ENSMUSP00000000080.6
 9 ENSMUST00000000087.12     Scmh1 ENSMUSP00000000087.6
10  ENSMUST00000000090.6     Cox5a ENSMUSP00000000090.6
# ... with 57,314 more rows
…
subsettx <- countdata %>% 
  # select only tx having >100 counts across all samples used for fold change
  filter_at(vars(one_of(subsetsamples)), all_vars(. >= 100)) %>% 
  select(transcript_id, length)

lfcdata  <- lfcdata %>% 
  right_join(subsettx, by = "transcript_id")

print(subsettx)

# A tibble: 3,097 x 2
        transcript_id length
                <chr>  <int>
 1  ENST00000229239.9   1008
 2  ENST00000336023.9   1356
 3  ENST00000309311.6   2577
 4  ENST00000369159.2    393
 5 ENST00000216281.12   2199
 6  ENST00000468812.5    498
 7 ENST00000309268.10   1389
 8  ENST00000331789.9   1128
 9  ENST00000376263.7   1395
10  ENST00000331925.6   1128
# ... with 3,087 more rows
…
# convert humann homolog proteins in human gene symbols
human_atf4_targets <- human_cds %>% 
  mutate(protein_id = str_extract(protein_id, "^[^\\.]+")) %>% 
  ungroup %>% 
  right_join(humanhomologs) %>% 
  select(gene_name) %>%
  distinct(gene_name) %>% 
  # add ATF4 which is technically not a target but we want to plot
  bind_rows(list('gene_name' = 'ATF4')) %>% 
  print

Joining, by = "protein_id"

# A tibble: 367 x 1
   gene_name
       <chr>
 1    SCPEP1
 2  SERPINF1
 3     ITGB7
 4     COASY
 5   ANGPTL4
 6      GARS
 7     WARS2
 8     CLCN3
 9      <NA>
10     WISP1
# ... with 357 more rows
…
match human mTORC1 targets to human CDS list to create mTORC1 target list¶

In [260]:

mtorc1_target_human_proteins <- human_cds %>% 
  filter(gene_name %in% targetlist) %>% 
  ungroup %>%
  select(gene_name) %>%
  distinct(gene_name) %>% 
  print

# A tibble: 141 x 1
   gene_name
       <chr>
 1     RPS20
 2    BOD1L1
 3     RPL18
 4      RPS5
 5      RPL6
 6      RPL3
 7      ST13
 8    EEF1A2
 9      AHCY
10      AGO2
# ... with 131 more rows
…
subsettx <- countdata %>% 
  # select only tx having >100 counts across all samples used for fold change
  filter_at(vars(one_of(subsetsamples)), all_vars(. >= 100)) %>% 
  select(transcript_id)

lfcdata  <- lfcdata %>% 
  select(one_of(subset), transcript_id) %>% 
  right_join(subsettx, by = "transcript_id")

print(lfcdata)

# A tibble: 6,344 x 5
   X293t_rpC_arg_3h.vs.X293t_rpC_rich_3h X293t_rpC_leu_3h.vs.X293t_rpC_rich_3h
                                   <dbl>                                 <dbl>
 1                                -0.191                                 0.012
 2                                -0.073                                -0.003
 3                                -0.131                                -0.705
 4                                 0.343                                -1.074
 5                                 0.076                                 0.569
 6                                -0.202                                 0.309
 7                                -0.342                                -0.883
 8                                -0.004                                -0.355
 9                                 0.454                                 0.485
10                                -0.081                                -0.740
# ... with 6,334 more rows, and 3 more variables:
#   X293t_arg_6h.vs.X293t_rich_6h <dbl>, X293t_leu_6h.vs.X293t_rich_6h <dbl>,
#   transcript_id <chr>
…
Total of 73 Atf4 target genes are down-regulated across all three cell lines and during both Leu and Arg starvation.

Following number of ATF4 targets are more up-regulated during Arg starvation than Leu starvation:

# A tibble: 292 x 5
   gene_name cellline treatment        time   lfc
 *     <chr>    <chr>     <chr>       <chr> <dbl>
 1   SLC7A11    X293t       arg 3h.vs.X293t 2.362
 2      STC2    X293t       arg 3h.vs.X293t 2.549
 3     DDIT4    X293t       arg 3h.vs.X293t 3.059
 4       CTH    X293t       arg 3h.vs.X293t 2.220
 5      ATF4    X293t       arg 3h.vs.X293t 1.860
 6     SESN2    X293t       arg 3h.vs.X293t 2.047
 7      ATF3    X293t       arg 3h.vs.X293t 2.375
 8      ASNS    X293t       arg 3h.vs.X293t 1.936
 9      PCK2    X293t       arg 3h.vs.X293t 1.608
10   TSC22D3    X293t       arg 3h.vs.X293t 1.827
# ... with 282 more rows
…
