plot_codon_ribo_density
…
set codon aa pairs¶

In [4]:

# set codon-aa pairings
codon.table  <- GENETIC_CODE %>% 
  as_tibble() %>%
  rownames_to_column(var='codon') %>%
  dplyr::rename(., aa=value) %>%
  arrange(aa) %>% 
  mutate(aanum = list <- c(1,1,1,2,2,2,2,3,3,4,4,5,5,6,6,7,7,7,7,8,8,9,9,9,10,10,11,11,11,11,11,11,12,13,13,14,14,14,14,15,15,16,16,16,16,16,16,17,17,17,17,17,17,18,18,18,18,19,19,19,19,20,21,21)) %>% 
  print

# A tibble: 64 x 3
   codon    aa aanum
   <chr> <chr> <dbl>
 1   TAA     *     1
 2   TAG     *     1
 3   TGA     *     1
 4   GCT     A     2
 5   GCC     A     2
 6   GCA     A     2
 7   GCG     A     2
 8   TGT     C     3
 9   TGC     C     3
10   GAT     D     4
# ... with 54 more rows
…
         read_tsv(col_types = c(col_character())) %>% 
         # gather all positions into single column
         gather(position, density, -codon) %>% 
         # convert position to integer
         mutate(position = as.integer(position))
        ) %>% 
  # give each sample the correct name
  set_names(samples) %>% 
  # join all sample data into one dataframe
  bind_rows(.id = 'sample') %>% 
  # add aa for each codon
  left_join(codon.table, by = 'codon') %>%
  print

# A tibble: 750,300 x 6
        sample codon position density    aa aanum
         <chr> <chr>    <int>   <dbl> <chr> <dbl>
 1 293t_arg_3h   TTT     -150  0.9957     F     6
 2 293t_arg_3h   TTC     -150  1.0143     F     6
 3 293t_arg_3h   TTA     -150  1.0510     L    11
 4 293t_arg_3h   TTG     -150  1.0301     L    11
 5 293t_arg_3h   TCT     -150  1.0205     S    17
 6 293t_arg_3h   TCC     -150  1.0020     S    17
 7 293t_arg_3h   TCA     -150  0.9867     S    17
 8 293t_arg_3h   TCG     -150  0.9233     S    17
 9 293t_arg_3h   TAT     -150  1.0709     Y    21
10 293t_arg_3h   TAC     -150  1.0779     Y    21
# ... with 750,290 more rows
…
