polysome_profile_plot
…
data <- data %>% 
  left_join(peak, by = "sample") %>% 
  # shift along x-axis
  mutate(Distance = Distance - peakdistance) %>% 
  # normalize by max monosome peak absorbance
  mutate(Absorbance = Absorbance / absorbancefactor) %>% 
  print

# A tibble: 6,266 x 5
   sample    Distance Absorbance peakdistance absorbancefactor
   <fctr>       <dbl>      <dbl>        <dbl>            <dbl>
 1   Arg -0.36333333   0.044395    0.4033333                1
 2   Arg -0.32333333   0.044476    0.4033333                1
 3   Arg -0.29333333   0.044427    0.4033333                1
 4   Arg -0.25333333   0.044340    0.4033333                1
 5   Arg -0.21333333   0.044076    0.4033333                1
 6   Arg -0.18333333   0.044009    0.4033333                1
 7   Arg -0.14333333   0.043965    0.4033333                1
 8   Arg -0.10333333   0.043933    0.4033333                1
 9   Arg -0.07333333   0.043963    0.4033333                1
10   Arg -0.03333333   0.043896    0.4033333                1
# ... with 6,256 more rows
…
data <- data %>% 
  left_join(peak, by = "sample") %>% 
  # shift along x-axis
  mutate(Distance = Distance - peakdistance) %>% 
  # normalize by max monosome peak absorbance
  mutate(Absorbance = Absorbance / absorbancefactor) %>% 
  print

# A tibble: 6,599 x 5
   sample  Distance Absorbance peakdistance absorbancefactor
   <fctr>     <dbl>      <dbl>        <dbl>            <dbl>
 1   Arg 0.8566667 0.06356623   -0.8166667        0.7710384
 2   Arg 0.8966667 0.06357401   -0.8166667        0.7710384
 3   Arg 0.9266667 0.06336650   -0.8166667        0.7710384
 4   Arg 0.9666667 0.06308117   -0.8166667        0.7710384
 5   Arg 1.0066667 0.06295666   -0.8166667        0.7710384
 6   Arg 1.0366667 0.06281789   -0.8166667        0.7710384
 7   Arg 1.0766667 0.06283604   -0.8166667        0.7710384
 8   Arg 1.1166667 0.06282048   -0.8166667        0.7710384
 9   Arg 1.1466667 0.06281529   -0.8166667        0.7710384
10   Arg 1.1866667 0.06284901   -0.8166667        0.7710384
# ... with 6,589 more rows
…
data <- data %>% 
  left_join(peak, by = "sample") %>% 
  # shift along x-axis
  mutate(Distance = Distance - peakdistance) %>% 
  # normalize by max monosome peak absorbance
  mutate(Absorbance = Absorbance / absorbancefactor) %>% 
  print

# A tibble: 6,485 x 5
   sample Distance Absorbance peakdistance absorbancefactor
   <fctr>    <dbl>      <dbl>        <dbl>            <dbl>
 1   Arg    -0.15   0.046935         0.19                1
 2   Arg    -0.12   0.046717         0.19                1
 3   Arg    -0.08   0.046562         0.19                1
 4   Arg    -0.04   0.046489         0.19                1
 5   Arg    -0.01   0.046493         0.19                1
 6   Arg     0.03   0.046435         0.19                1
 7   Arg     0.07   0.046471         0.19                1
 8   Arg     0.11   0.046479         0.19                1
 9   Arg     0.14   0.046530         0.19                1
10   Arg     0.18   0.046481         0.19                1
# ... with 6,475 more rows
…
data <- data %>% 
  left_join(peak, by = "sample") %>% 
  # shift along x-axis
  mutate(Distance = Distance - peakdistance) %>% 
  # normalize by max monosome peak absorbance
  mutate(Absorbance = Absorbance / absorbancefactor) %>% 
  print

# A tibble: 6,533 x 5
   sample  Distance Absorbance peakdistance absorbancefactor
   <fctr>     <dbl>      <dbl>        <dbl>            <dbl>
 1   Arg 0.9933333   0.045049   -0.9533333                1
 2   Arg 1.0233333   0.045047   -0.9533333                1
 3   Arg 1.0633333   0.045014   -0.9533333                1
 4   Arg 1.1033333   0.044942   -0.9533333                1
 5   Arg 1.1433333   0.045053   -0.9533333                1
 6   Arg 1.1733333   0.045024   -0.9533333                1
 7   Arg 1.2133333   0.045002   -0.9533333                1
 8   Arg 1.2533333   0.044978   -0.9533333                1
 9   Arg 1.2833333   0.044972   -0.9533333                1
10   Arg 1.3233333   0.044986   -0.9533333                1
# ... with 6,523 more rows
…
