tRNA_quantification
…
datafiles <- '../rawdata/tRNA_charging_blots/fig2/WT_arg_acgccgtcg_leu_caacagtagaag_3h/processeddata/'  %>% 
  list.files(pattern = "csv$", full.names = T)
samplenames <- datafiles %>% 
  stringr::str_match("/([^_/]+)[^/]+$") %>% 
  magrittr::extract(,2)
data <- datafiles %>% 
  lapply(. %>% read_csv(col_types = c(col_character()))) %>% 
  magrittr::set_names(samplenames) %>% 
  bind_rows(.id = 'aatrna') %>% 
  mutate(aa = substr(aatrna, 1, 3)) %>% 
  mutate(samplelabel = stringr::str_replace(samplelabel, '-','\u2013')) %>% 
  print

# A tibble: 21 x 7
   aatrna  trna samplelabel mean_chargedfraction      stdev     stderr    aa
    <chr> <chr>       <chr>                <dbl>      <dbl>      <dbl> <chr>
 1 argacg   ACG        Rich            0.7395623 0.08316640 0.04801615   arg
 2 argacg   ACG        Leu            0.7328162 0.10926492 0.06308413   arg
 3 argacg   ACG        Arg            0.2232467 0.05863257 0.03385153   arg
 4 argccg   CCG        Rich            0.8675503 0.06221034 0.03591716   arg
 5 argccg   CCG        Leu            0.7800130 0.06160341 0.03556674   arg
 6 argccg   CCG        Arg            0.4946929 0.06471545 0.03736348   arg
 7 argtcg   TCG        Rich            0.8199948 0.01757547 0.01014720   arg
 8 argtcg   TCG        Leu            0.7769213 0.05845568 0.03374940   arg
 9 argtcg   TCG        Arg            0.4694101 0.10764675 0.06214988   arg
10 leuaag   AAG        Rich            0.7234322 0.04312285 0.02489699   leu
# ... with 11 more rows
…
[1] "argacg" "leucaa"
# A tibble: 24 x 10
   aatrna  trna cell_line samplelabel mean_chargedfraction stdev sterr    aa
    <chr> <chr>     <chr>       <chr>                <dbl> <chr> <chr> <chr>
 1 argacg   ACG        WT        Rich            0.8070069  <NA>  <NA>   arg
 2 argacg   ACG     hrGFP        Rich            0.7389354  <NA>  <NA>   arg
 3 argacg   ACG RagB-Q99L        Rich            0.8063565  <NA>  <NA>   arg
 4 argacg   ACG   GCN2-KO        Rich            0.8367921  <NA>  <NA>   arg
 5 argacg   ACG        WT        Leu            0.8466140  <NA>  <NA>   arg
 6 argacg   ACG     hrGFP        Leu            0.8489130  <NA>  <NA>   arg
 7 argacg   ACG RagB-Q99L        Leu            0.8503090  <NA>  <NA>   arg
 8 argacg   ACG   GCN2-KO        Leu            0.8623414  <NA>  <NA>   arg
 9 argacg   ACG        WT        Arg            0.3331593  <NA>  <NA>   arg
10 argacg   ACG     hrGFP        Arg            0.3015906  <NA>  <NA>   arg
# ... with 14 more rows, and 2 more variables: xlabel <fctr>, sampleorder <dbl>
…
[1] "argacg" "argacg" "leucaa"
# A tibble: 24 x 8
   aatrna  trna    cell_line samplelabel mean_chargedfraction    aa
    <chr> <chr>        <chr>       <chr>                <dbl> <chr>
 1 argacg   ACG        hrGFP        Rich            0.8292052   arg
 2 argacg   ACG      RagB-WT        Rich            0.8103393   arg
 3 argacg   ACG    RagB-Q99L        Rich            0.7886003   arg
 4 argacg   ACG hrGFP+Torin1        Rich            0.8475965   arg
 5 argacg   ACG        hrGFP        Leu            0.8251559   arg
 6 argacg   ACG      RagB-WT        Leu            0.7969334   arg
 7 argacg   ACG    RagB-Q99L        Leu            0.8067210   arg
 8 argacg   ACG hrGFP+Torin1        Leu            0.8372183   arg
 9 argacg   ACG        hrGFP        Arg            0.6787563   arg
10 argacg   ACG      RagB-WT        Arg            0.6884856   arg
# ... with 14 more rows, and 2 more variables: xlabel <fctr>, sampleorder <dbl>
…
data

[1] "argacg" "argccg" "argtcg"
# A tibble: 27 x 10
   aatrna  trna cell_line samplelabel mean_chargedfraction      stdev
    <chr> <chr>     <chr>       <chr>                <dbl>      <dbl>
 1 argacg   ACG     hrGFP        Rich            0.8670868 0.01172267
 2 argacg   ACG   RagB-WT        Rich            0.8613701 0.03980591
 3 argacg   ACG RagB-Q99L        Rich            0.8709106 0.02801426
 4 argacg   ACG     hrGFP        Leu            0.8885709 0.02522602
 5 argacg   ACG   RagB-WT        Leu            0.8780857 0.02259936
 6 argacg   ACG RagB-Q99L        Leu            0.8806131 0.03151315
 7 argacg   ACG     hrGFP        Arg            0.2504738 0.06566611
 8 argacg   ACG   RagB-WT        Arg            0.3003335 0.13074174
 9 argacg   ACG RagB-Q99L        Arg            0.2641125 0.01694858
10 argccg   CCG     hrGFP        Rich            0.9286907 0.03733567
# ... with 17 more rows, and 4 more variables: sterr <dbl>, aa <chr>,
#   xlabel <fctr>, sampleorder <dbl>
…
data

[1] "leuaag" "leucaa" "leucag" "leutag"
# A tibble: 36 x 10
   aatrna  trna cell_line samplelabel mean_chargedfraction      stdev
    <chr> <chr>     <chr>       <chr>                <dbl>      <dbl>
 1 leuaag   AAG     hrGFP        Rich            0.7161863 0.04561394
 2 leuaag   AAG   RagB-WT        Rich            0.7927008 0.06324721
 3 leuaag   AAG RagB-Q99L        Rich            0.8071739 0.01450018
 4 leuaag   AAG     hrGFP        Leu            0.5912405 0.04521480
 5 leuaag   AAG   RagB-WT        Leu            0.5506140 0.05061107
 6 leuaag   AAG RagB-Q99L        Leu            0.3812656 0.07878565
 7 leuaag   AAG     hrGFP        Arg            0.8229787 0.02024475
 8 leuaag   AAG   RagB-WT        Arg            0.8301938 0.03805705
 9 leuaag   AAG RagB-Q99L        Arg            0.8101941 0.02498401
10 leucaa   CAA     hrGFP        Rich            0.8364168 0.06759715
# ... with 26 more rows, and 4 more variables: sterr <dbl>, aa <chr>,
#   xlabel <fctr>, sampleorder <dbl>
…
